kode_provinsi,nama_provinsi,tahun,kelompok_usia,persen_partisipasi_sekolah
11,"Prov. Nanggroe Aceh Darussalam",2003,"13 - 15",92.89
11,"Prov. Nanggroe Aceh Darussalam",2003,"16 - 18",72.25
11,"Prov. Nanggroe Aceh Darussalam",2003,"19 - 24",17.12
11,"Prov. Nanggroe Aceh Darussalam",2003,"7 - 12",98.05
11,"Prov. Nanggroe Aceh Darussalam",2004,"13 - 15",94.99
11,"Prov. Nanggroe Aceh Darussalam",2004,"16 - 18",73.31
11,"Prov. Nanggroe Aceh Darussalam",2004,"19 - 24",18.68
11,"Prov. Nanggroe Aceh Darussalam",2004,"7 - 12",98.67
11,"Prov. Nanggroe Aceh Darussalam",2005,"13 - 15",
11,"Prov. Nanggroe Aceh Darussalam",2005,"16 - 18",
11,"Prov. Nanggroe Aceh Darussalam",2005,"19 - 24",
11,"Prov. Nanggroe Aceh Darussalam",2005,"7 - 12",
11,"Prov. Nanggroe Aceh Darussalam",2006,"13 - 15",93.83
11,"Prov. Nanggroe Aceh Darussalam",2006,"16 - 18",72.43
11,"Prov. Nanggroe Aceh Darussalam",2006,"19 - 24",20.95
11,"Prov. Nanggroe Aceh Darussalam",2006,"7 - 12",98.88
11,"Prov. Nanggroe Aceh Darussalam",2007,"13 - 15",94.06
11,"Prov. Nanggroe Aceh Darussalam",2007,"16 - 18",72.79
11,"Prov. Nanggroe Aceh Darussalam",2007,"19 - 24",23.6
11,"Prov. Nanggroe Aceh Darussalam",2007,"7 - 12",98.95
11,"Prov. Nanggroe Aceh Darussalam",2008,"13 - 15",94.15
11,"Prov. Nanggroe Aceh Darussalam",2008,"16 - 18",72.73
11,"Prov. Nanggroe Aceh Darussalam",2008,"19 - 24",23.13
11,"Prov. Nanggroe Aceh Darussalam",2008,"7 - 12",99.03
11,"Prov. Nanggroe Aceh Darussalam",2009,"13 - 15",94.31
11,"Prov. Nanggroe Aceh Darussalam",2009,"16 - 18",72.74
11,"Prov. Nanggroe Aceh Darussalam",2009,"19 - 24",22.82
11,"Prov. Nanggroe Aceh Darussalam",2009,"7 - 12",99.07
11,"Prov. Nanggroe Aceh Darussalam",2010,"13 - 15",94.99
11,"Prov. Nanggroe Aceh Darussalam",2010,"16 - 18",73.53
11,"Prov. Nanggroe Aceh Darussalam",2010,"19 - 24",24.11
11,"Prov. Nanggroe Aceh Darussalam",2010,"7 - 12",99.19
11,"Prov. Nanggroe Aceh Darussalam",2011,"13 - 15",94.07
11,"Prov. Nanggroe Aceh Darussalam",2011,"16 - 18",72.41
11,"Prov. Nanggroe Aceh Darussalam",2011,"19 - 24",27.48
11,"Prov. Nanggroe Aceh Darussalam",2011,"7 - 12",99.03
11,"Prov. Nanggroe Aceh Darussalam",2012,"13 - 15",94.41
11,"Prov. Nanggroe Aceh Darussalam",2012,"16 - 18",74.44
11,"Prov. Nanggroe Aceh Darussalam",2012,"19 - 24",28.67
11,"Prov. Nanggroe Aceh Darussalam",2012,"7 - 12",99.35
12,"Prov. Sumatera Utara",2003,"13 - 15",88.51
12,"Prov. Sumatera Utara",2003,"16 - 18",63.19
12,"Prov. Sumatera Utara",2003,"19 - 24",12.2
12,"Prov. Sumatera Utara",2003,"7 - 12",98.25
12,"Prov. Sumatera Utara",2004,"13 - 15",90.28
12,"Prov. Sumatera Utara",2004,"16 - 18",66.42
12,"Prov. Sumatera Utara",2004,"19 - 24",11.75
12,"Prov. Sumatera Utara",2004,"7 - 12",97.64
12,"Prov. Sumatera Utara",2005,"13 - 15",90.55
12,"Prov. Sumatera Utara",2005,"16 - 18",65.77
12,"Prov. Sumatera Utara",2005,"19 - 24",13.12
12,"Prov. Sumatera Utara",2005,"7 - 12",98.04
12,"Prov. Sumatera Utara",2006,"13 - 15",90.62
12,"Prov. Sumatera Utara",2006,"16 - 18",65.09
12,"Prov. Sumatera Utara",2006,"19 - 24",13.22
12,"Prov. Sumatera Utara",2006,"7 - 12",98.19
12,"Prov. Sumatera Utara",2007,"13 - 15",90.73
12,"Prov. Sumatera Utara",2007,"16 - 18",65.87
12,"Prov. Sumatera Utara",2007,"19 - 24",14.42
12,"Prov. Sumatera Utara",2007,"7 - 12",98.37
12,"Prov. Sumatera Utara",2008,"13 - 15",91.1
12,"Prov. Sumatera Utara",2008,"16 - 18",65.87
12,"Prov. Sumatera Utara",2008,"19 - 24",14.6
12,"Prov. Sumatera Utara",2008,"7 - 12",98.66
12,"Prov. Sumatera Utara",2009,"13 - 15",91.43
12,"Prov. Sumatera Utara",2009,"16 - 18",66.34
12,"Prov. Sumatera Utara",2009,"19 - 24",14.68
12,"Prov. Sumatera Utara",2009,"7 - 12",98.7
12,"Prov. Sumatera Utara",2010,"13 - 15",92.26
12,"Prov. Sumatera Utara",2010,"16 - 18",66.94
12,"Prov. Sumatera Utara",2010,"19 - 24",15.65
12,"Prov. Sumatera Utara",2010,"7 - 12",98.9
12,"Prov. Sumatera Utara",2011,"13 - 15",89.1
12,"Prov. Sumatera Utara",2011,"16 - 18",67.54
12,"Prov. Sumatera Utara",2011,"19 - 24",16.42
12,"Prov. Sumatera Utara",2011,"7 - 12",98.33
12,"Prov. Sumatera Utara",2012,"13 - 15",90.85
12,"Prov. Sumatera Utara",2012,"16 - 18",69.73
12,"Prov. Sumatera Utara",2012,"19 - 24",17.36
12,"Prov. Sumatera Utara",2012,"7 - 12",98.59
13,"Prov. Sumatera Barat",2003,"13 - 15",86.7
13,"Prov. Sumatera Barat",2003,"16 - 18",63.23
13,"Prov. Sumatera Barat",2003,"19 - 24",20.77
13,"Prov. Sumatera Barat",2003,"7 - 12",96.94
13,"Prov. Sumatera Barat",2004,"13 - 15",88.73
13,"Prov. Sumatera Barat",2004,"16 - 18",66.41
13,"Prov. Sumatera Barat",2004,"19 - 24",22.33
13,"Prov. Sumatera Barat",2004,"7 - 12",97.11
13,"Prov. Sumatera Barat",2005,"13 - 15",89.24
13,"Prov. Sumatera Barat",2005,"16 - 18",67.12
13,"Prov. Sumatera Barat",2005,"19 - 24",21.4
13,"Prov. Sumatera Barat",2005,"7 - 12",97.04
13,"Prov. Sumatera Barat",2006,"13 - 15",88.45
13,"Prov. Sumatera Barat",2006,"16 - 18",64.29
13,"Prov. Sumatera Barat",2006,"19 - 24",18.29
13,"Prov. Sumatera Barat",2006,"7 - 12",97.71
13,"Prov. Sumatera Barat",2007,"13 - 15",88.52
13,"Prov. Sumatera Barat",2007,"16 - 18",65.35
13,"Prov. Sumatera Barat",2007,"19 - 24",20.88
13,"Prov. Sumatera Barat",2007,"7 - 12",97.78
13,"Prov. Sumatera Barat",2008,"13 - 15",88.7
13,"Prov. Sumatera Barat",2008,"16 - 18",65.73
13,"Prov. Sumatera Barat",2008,"19 - 24",21.22
13,"Prov. Sumatera Barat",2008,"7 - 12",98.07
13,"Prov. Sumatera Barat",2009,"13 - 15",88.79
13,"Prov. Sumatera Barat",2009,"16 - 18",65.25
13,"Prov. Sumatera Barat",2009,"19 - 24",20.58
13,"Prov. Sumatera Barat",2009,"7 - 12",98.02
13,"Prov. Sumatera Barat",2010,"13 - 15",89.51
13,"Prov. Sumatera Barat",2010,"16 - 18",65.65
13,"Prov. Sumatera Barat",2010,"19 - 24",21.26
13,"Prov. Sumatera Barat",2010,"7 - 12",98.24
13,"Prov. Sumatera Barat",2011,"13 - 15",89.64
13,"Prov. Sumatera Barat",2011,"16 - 18",68.12
13,"Prov. Sumatera Barat",2011,"19 - 24",22
13,"Prov. Sumatera Barat",2011,"7 - 12",98.1
13,"Prov. Sumatera Barat",2012,"13 - 15",90.79
13,"Prov. Sumatera Barat",2012,"16 - 18",71.38
13,"Prov. Sumatera Barat",2012,"19 - 24",27.64
13,"Prov. Sumatera Barat",2012,"7 - 12",98.38
14,"Prov. Riau",2003,"13 - 15",87.57
14,"Prov. Riau",2003,"16 - 18",60.42
14,"Prov. Riau",2003,"19 - 24",9.67
14,"Prov. Riau",2003,"7 - 12",97.03
14,"Prov. Riau",2004,"13 - 15",89.29
14,"Prov. Riau",2004,"16 - 18",60.03
14,"Prov. Riau",2004,"19 - 24",10.2
14,"Prov. Riau",2004,"7 - 12",97.27
14,"Prov. Riau",2005,"13 - 15",90.64
14,"Prov. Riau",2005,"16 - 18",62.39
14,"Prov. Riau",2005,"19 - 24",12.61
14,"Prov. Riau",2005,"7 - 12",98.27
14,"Prov. Riau",2006,"13 - 15",91.15
14,"Prov. Riau",2006,"16 - 18",62.87
14,"Prov. Riau",2006,"19 - 24",12.33
14,"Prov. Riau",2006,"7 - 12",97.68
14,"Prov. Riau",2007,"13 - 15",91.14
14,"Prov. Riau",2007,"16 - 18",63.92
14,"Prov. Riau",2007,"19 - 24",13.44
14,"Prov. Riau",2007,"7 - 12",97.94
14,"Prov. Riau",2008,"13 - 15",91.83
14,"Prov. Riau",2008,"16 - 18",64.11
14,"Prov. Riau",2008,"19 - 24",13.77
14,"Prov. Riau",2008,"7 - 12",98.36
14,"Prov. Riau",2009,"13 - 15",91.58
14,"Prov. Riau",2009,"16 - 18",63.92
14,"Prov. Riau",2009,"19 - 24",13.14
14,"Prov. Riau",2009,"7 - 12",98.55
14,"Prov. Riau",2010,"13 - 15",92.09
14,"Prov. Riau",2010,"16 - 18",64.54
14,"Prov. Riau",2010,"19 - 24",14.02
14,"Prov. Riau",2010,"7 - 12",98.75
14,"Prov. Riau",2011,"13 - 15",87.94
14,"Prov. Riau",2011,"16 - 18",65.06
14,"Prov. Riau",2011,"19 - 24",15.21
14,"Prov. Riau",2011,"7 - 12",97.71
14,"Prov. Riau",2012,"13 - 15",87.64
14,"Prov. Riau",2012,"16 - 18",65.79
14,"Prov. Riau",2012,"19 - 24",16
14,"Prov. Riau",2012,"7 - 12",98.14
15,"Prov. Jambi",2003,"13 - 15",82.61
15,"Prov. Jambi",2003,"16 - 18",52.89
15,"Prov. Jambi",2003,"19 - 24",11.09
15,"Prov. Jambi",2003,"7 - 12",97.28
15,"Prov. Jambi",2004,"13 - 15",86.23
15,"Prov. Jambi",2004,"16 - 18",55.54
15,"Prov. Jambi",2004,"19 - 24",9.22
15,"Prov. Jambi",2004,"7 - 12",97.06
15,"Prov. Jambi",2005,"13 - 15",84.13
15,"Prov. Jambi",2005,"16 - 18",53.39
15,"Prov. Jambi",2005,"19 - 24",9.39
15,"Prov. Jambi",2005,"7 - 12",97.84
15,"Prov. Jambi",2006,"13 - 15",83.77
15,"Prov. Jambi",2006,"16 - 18",53.75
15,"Prov. Jambi",2006,"19 - 24",10.41
15,"Prov. Jambi",2006,"7 - 12",97.2
15,"Prov. Jambi",2007,"13 - 15",84.53
15,"Prov. Jambi",2007,"16 - 18",55.39
15,"Prov. Jambi",2007,"19 - 24",12.31
15,"Prov. Jambi",2007,"7 - 12",97.28
15,"Prov. Jambi",2008,"13 - 15",84.78
15,"Prov. Jambi",2008,"16 - 18",55.72
15,"Prov. Jambi",2008,"19 - 24",12.77
15,"Prov. Jambi",2008,"7 - 12",97.59
15,"Prov. Jambi",2009,"13 - 15",85.1
15,"Prov. Jambi",2009,"16 - 18",55.13
15,"Prov. Jambi",2009,"19 - 24",11.83
15,"Prov. Jambi",2009,"7 - 12",98.11
15,"Prov. Jambi",2010,"13 - 15",85.56
15,"Prov. Jambi",2010,"16 - 18",56.11
15,"Prov. Jambi",2010,"19 - 24",12.81
15,"Prov. Jambi",2010,"7 - 12",98.27
15,"Prov. Jambi",2011,"13 - 15",88.07
15,"Prov. Jambi",2011,"16 - 18",59.49
15,"Prov. Jambi",2011,"19 - 24",15.36
15,"Prov. Jambi",2011,"7 - 12",98.34
15,"Prov. Jambi",2012,"13 - 15",90.83
15,"Prov. Jambi",2012,"16 - 18",59.11
15,"Prov. Jambi",2012,"19 - 24",15.23
15,"Prov. Jambi",2012,"7 - 12",98.65
16,"Prov. Sumatera Selatan",2003,"13 - 15",78.65
16,"Prov. Sumatera Selatan",2003,"16 - 18",44.57
16,"Prov. Sumatera Selatan",2003,"19 - 24",10.08
16,"Prov. Sumatera Selatan",2003,"7 - 12",96.5
16,"Prov. Sumatera Selatan",2004,"13 - 15",83.58
16,"Prov. Sumatera Selatan",2004,"16 - 18",51.06
16,"Prov. Sumatera Selatan",2004,"19 - 24",11.46
16,"Prov. Sumatera Selatan",2004,"7 - 12",97.24
16,"Prov. Sumatera Selatan",2005,"13 - 15",86.28
16,"Prov. Sumatera Selatan",2005,"16 - 18",52.7
16,"Prov. Sumatera Selatan",2005,"19 - 24",11.32
16,"Prov. Sumatera Selatan",2005,"7 - 12",97.85
16,"Prov. Sumatera Selatan",2006,"13 - 15",83.43
16,"Prov. Sumatera Selatan",2006,"16 - 18",52.77
16,"Prov. Sumatera Selatan",2006,"19 - 24",10.35
16,"Prov. Sumatera Selatan",2006,"7 - 12",96.84
16,"Prov. Sumatera Selatan",2007,"13 - 15",84.26
16,"Prov. Sumatera Selatan",2007,"16 - 18",54.43
16,"Prov. Sumatera Selatan",2007,"19 - 24",12.04
16,"Prov. Sumatera Selatan",2007,"7 - 12",97.55
16,"Prov. Sumatera Selatan",2008,"13 - 15",84.55
16,"Prov. Sumatera Selatan",2008,"16 - 18",54.27
16,"Prov. Sumatera Selatan",2008,"19 - 24",12.3
16,"Prov. Sumatera Selatan",2008,"7 - 12",97.88
16,"Prov. Sumatera Selatan",2009,"13 - 15",84.65
16,"Prov. Sumatera Selatan",2009,"16 - 18",54.12
16,"Prov. Sumatera Selatan",2009,"19 - 24",11.61
16,"Prov. Sumatera Selatan",2009,"7 - 12",97.8
16,"Prov. Sumatera Selatan",2010,"13 - 15",85.41
16,"Prov. Sumatera Selatan",2010,"16 - 18",54.79
16,"Prov. Sumatera Selatan",2010,"19 - 24",12.07
16,"Prov. Sumatera Selatan",2010,"7 - 12",98
16,"Prov. Sumatera Selatan",2011,"13 - 15",85.32
16,"Prov. Sumatera Selatan",2011,"16 - 18",55.93
16,"Prov. Sumatera Selatan",2011,"19 - 24",12.25
16,"Prov. Sumatera Selatan",2011,"7 - 12",97.91
16,"Prov. Sumatera Selatan",2012,"13 - 15",88.52
16,"Prov. Sumatera Selatan",2012,"16 - 18",58.31
16,"Prov. Sumatera Selatan",2012,"19 - 24",13.55
16,"Prov. Sumatera Selatan",2012,"7 - 12",98.04
17,"Prov. Bengkulu",2003,"13 - 15",78.93
17,"Prov. Bengkulu",2003,"16 - 18",52.38
17,"Prov. Bengkulu",2003,"19 - 24",13.39
17,"Prov. Bengkulu",2003,"7 - 12",96.28
17,"Prov. Bengkulu",2004,"13 - 15",87.83
17,"Prov. Bengkulu",2004,"16 - 18",61.88
17,"Prov. Bengkulu",2004,"19 - 24",11.83
17,"Prov. Bengkulu",2004,"7 - 12",97.43
17,"Prov. Bengkulu",2005,"13 - 15",83.05
17,"Prov. Bengkulu",2005,"16 - 18",57.62
17,"Prov. Bengkulu",2005,"19 - 24",13.96
17,"Prov. Bengkulu",2005,"7 - 12",97.15
17,"Prov. Bengkulu",2006,"13 - 15",86.75
17,"Prov. Bengkulu",2006,"16 - 18",58.77
17,"Prov. Bengkulu",2006,"19 - 24",14.77
17,"Prov. Bengkulu",2006,"7 - 12",98.1
17,"Prov. Bengkulu",2007,"13 - 15",86.93
17,"Prov. Bengkulu",2007,"16 - 18",59
17,"Prov. Bengkulu",2007,"19 - 24",16.46
17,"Prov. Bengkulu",2007,"7 - 12",98.25
17,"Prov. Bengkulu",2008,"13 - 15",87.42
17,"Prov. Bengkulu",2008,"16 - 18",58.64
17,"Prov. Bengkulu",2008,"19 - 24",16.07
17,"Prov. Bengkulu",2008,"7 - 12",98.38
17,"Prov. Bengkulu",2009,"13 - 15",87.47
17,"Prov. Bengkulu",2009,"16 - 18",58.8
17,"Prov. Bengkulu",2009,"19 - 24",15.97
17,"Prov. Bengkulu",2009,"7 - 12",98.53
17,"Prov. Bengkulu",2010,"13 - 15",88.25
17,"Prov. Bengkulu",2010,"16 - 18",59.63
17,"Prov. Bengkulu",2010,"19 - 24",16.95
17,"Prov. Bengkulu",2010,"7 - 12",98.67
17,"Prov. Bengkulu",2011,"13 - 15",90.82
17,"Prov. Bengkulu",2011,"16 - 18",62.34
17,"Prov. Bengkulu",2011,"19 - 24",16.81
17,"Prov. Bengkulu",2011,"7 - 12",98.29
17,"Prov. Bengkulu",2012,"13 - 15",92.63
17,"Prov. Bengkulu",2012,"16 - 18",66.71
17,"Prov. Bengkulu",2012,"19 - 24",19.32
17,"Prov. Bengkulu",2012,"7 - 12",98.96
18,"Prov. Lampung",2003,"13 - 15",83.43
18,"Prov. Lampung",2003,"16 - 18",48.31
18,"Prov. Lampung",2003,"19 - 24",8.82
18,"Prov. Lampung",2003,"7 - 12",96.07
18,"Prov. Lampung",2004,"13 - 15",84.35
18,"Prov. Lampung",2004,"16 - 18",48.19
18,"Prov. Lampung",2004,"19 - 24",7.65
18,"Prov. Lampung",2004,"7 - 12",96.69
18,"Prov. Lampung",2005,"13 - 15",86.27
18,"Prov. Lampung",2005,"16 - 18",51.14
18,"Prov. Lampung",2005,"19 - 24",9.76
18,"Prov. Lampung",2005,"7 - 12",96.95
18,"Prov. Lampung",2006,"13 - 15",84.14
18,"Prov. Lampung",2006,"16 - 18",49.47
18,"Prov. Lampung",2006,"19 - 24",7.26
18,"Prov. Lampung",2006,"7 - 12",97.77
18,"Prov. Lampung",2007,"13 - 15",84.99
18,"Prov. Lampung",2007,"16 - 18",50.02
18,"Prov. Lampung",2007,"19 - 24",8.71
18,"Prov. Lampung",2007,"7 - 12",97.9
18,"Prov. Lampung",2008,"13 - 15",85.1
18,"Prov. Lampung",2008,"16 - 18",50.69
18,"Prov. Lampung",2008,"19 - 24",9.06
18,"Prov. Lampung",2008,"7 - 12",98.26
18,"Prov. Lampung",2009,"13 - 15",85.92
18,"Prov. Lampung",2009,"16 - 18",50.44
18,"Prov. Lampung",2009,"19 - 24",8.97
18,"Prov. Lampung",2009,"7 - 12",98.53
18,"Prov. Lampung",2010,"13 - 15",86.62
18,"Prov. Lampung",2010,"16 - 18",51.34
18,"Prov. Lampung",2010,"19 - 24",9.82
18,"Prov. Lampung",2010,"7 - 12",98.71
18,"Prov. Lampung",2011,"13 - 15",85.85
18,"Prov. Lampung",2011,"16 - 18",55.41
18,"Prov. Lampung",2011,"19 - 24",10.01
18,"Prov. Lampung",2011,"7 - 12",97.9
18,"Prov. Lampung",2012,"13 - 15",90.03
18,"Prov. Lampung",2012,"16 - 18",59.8
18,"Prov. Lampung",2012,"19 - 24",11.6
18,"Prov. Lampung",2012,"7 - 12",98.59
19,"Prov. Kepulauan Bangka Belitung",2003,"13 - 15",74.17
19,"Prov. Kepulauan Bangka Belitung",2003,"16 - 18",44.19
19,"Prov. Kepulauan Bangka Belitung",2003,"19 - 24",3.88
19,"Prov. Kepulauan Bangka Belitung",2003,"7 - 12",96.07
19,"Prov. Kepulauan Bangka Belitung",2004,"13 - 15",77.25
19,"Prov. Kepulauan Bangka Belitung",2004,"16 - 18",48.22
19,"Prov. Kepulauan Bangka Belitung",2004,"19 - 24",4.73
19,"Prov. Kepulauan Bangka Belitung",2004,"7 - 12",95.3
19,"Prov. Kepulauan Bangka Belitung",2005,"13 - 15",78.05
19,"Prov. Kepulauan Bangka Belitung",2005,"16 - 18",50.86
19,"Prov. Kepulauan Bangka Belitung",2005,"19 - 24",8.93
19,"Prov. Kepulauan Bangka Belitung",2005,"7 - 12",96.81
19,"Prov. Kepulauan Bangka Belitung",2006,"13 - 15",79.04
19,"Prov. Kepulauan Bangka Belitung",2006,"16 - 18",44.95
19,"Prov. Kepulauan Bangka Belitung",2006,"19 - 24",6.07
19,"Prov. Kepulauan Bangka Belitung",2006,"7 - 12",96.26
19,"Prov. Kepulauan Bangka Belitung",2007,"13 - 15",80.38
19,"Prov. Kepulauan Bangka Belitung",2007,"16 - 18",46.9
19,"Prov. Kepulauan Bangka Belitung",2007,"19 - 24",8.41
19,"Prov. Kepulauan Bangka Belitung",2007,"7 - 12",96.3
19,"Prov. Kepulauan Bangka Belitung",2008,"13 - 15",79.71
19,"Prov. Kepulauan Bangka Belitung",2008,"16 - 18",47.31
19,"Prov. Kepulauan Bangka Belitung",2008,"19 - 24",8.75
19,"Prov. Kepulauan Bangka Belitung",2008,"7 - 12",96.76
19,"Prov. Kepulauan Bangka Belitung",2009,"13 - 15",79.98
19,"Prov. Kepulauan Bangka Belitung",2009,"16 - 18",46.7
19,"Prov. Kepulauan Bangka Belitung",2009,"19 - 24",8.25
19,"Prov. Kepulauan Bangka Belitung",2009,"7 - 12",96.9
19,"Prov. Kepulauan Bangka Belitung",2010,"13 - 15",80.59
19,"Prov. Kepulauan Bangka Belitung",2010,"16 - 18",47.51
19,"Prov. Kepulauan Bangka Belitung",2010,"19 - 24",8.9
19,"Prov. Kepulauan Bangka Belitung",2010,"7 - 12",97.1
19,"Prov. Kepulauan Bangka Belitung",2011,"13 - 15",83.54
19,"Prov. Kepulauan Bangka Belitung",2011,"16 - 18",49.17
19,"Prov. Kepulauan Bangka Belitung",2011,"19 - 24",8.86
19,"Prov. Kepulauan Bangka Belitung",2011,"7 - 12",97.02
19,"Prov. Kepulauan Bangka Belitung",2012,"13 - 15",83.52
19,"Prov. Kepulauan Bangka Belitung",2012,"16 - 18",50.89
19,"Prov. Kepulauan Bangka Belitung",2012,"19 - 24",8.67
19,"Prov. Kepulauan Bangka Belitung",2012,"7 - 12",97.74
21,"Prov. Kepulauan Riau",2003,"13 - 15",
21,"Prov. Kepulauan Riau",2003,"16 - 18",
21,"Prov. Kepulauan Riau",2003,"19 - 24",
21,"Prov. Kepulauan Riau",2003,"7 - 12",
21,"Prov. Kepulauan Riau",2004,"13 - 15",
21,"Prov. Kepulauan Riau",2004,"16 - 18",
21,"Prov. Kepulauan Riau",2004,"19 - 24",
21,"Prov. Kepulauan Riau",2004,"7 - 12",
21,"Prov. Kepulauan Riau",2005,"13 - 15",88.3
21,"Prov. Kepulauan Riau",2005,"16 - 18",58.05
21,"Prov. Kepulauan Riau",2005,"19 - 24",9.02
21,"Prov. Kepulauan Riau",2005,"7 - 12",97.45
21,"Prov. Kepulauan Riau",2006,"13 - 15",90.36
21,"Prov. Kepulauan Riau",2006,"16 - 18",63.24
21,"Prov. Kepulauan Riau",2006,"19 - 24",5.96
21,"Prov. Kepulauan Riau",2006,"7 - 12",97.78
21,"Prov. Kepulauan Riau",2007,"13 - 15",91.34
21,"Prov. Kepulauan Riau",2007,"16 - 18",64.26
21,"Prov. Kepulauan Riau",2007,"19 - 24",7.58
21,"Prov. Kepulauan Riau",2007,"7 - 12",97.88
21,"Prov. Kepulauan Riau",2008,"13 - 15",91.1
21,"Prov. Kepulauan Riau",2008,"16 - 18",64.62
21,"Prov. Kepulauan Riau",2008,"19 - 24",10.99
21,"Prov. Kepulauan Riau",2008,"7 - 12",98.31
21,"Prov. Kepulauan Riau",2009,"13 - 15",91.26
21,"Prov. Kepulauan Riau",2009,"16 - 18",64.62
21,"Prov. Kepulauan Riau",2009,"19 - 24",7.07
21,"Prov. Kepulauan Riau",2009,"7 - 12",98.95
21,"Prov. Kepulauan Riau",2010,"13 - 15",92.16
21,"Prov. Kepulauan Riau",2010,"16 - 18",66.56
21,"Prov. Kepulauan Riau",2010,"19 - 24",8.64
21,"Prov. Kepulauan Riau",2010,"7 - 12",99.35
21,"Prov. Kepulauan Riau",2011,"13 - 15",96.42
21,"Prov. Kepulauan Riau",2011,"16 - 18",65.74
21,"Prov. Kepulauan Riau",2011,"19 - 24",8.71
21,"Prov. Kepulauan Riau",2011,"7 - 12",97.84
21,"Prov. Kepulauan Riau",2012,"13 - 15",94.96
21,"Prov. Kepulauan Riau",2012,"16 - 18",69.72
21,"Prov. Kepulauan Riau",2012,"19 - 24",9.6
21,"Prov. Kepulauan Riau",2012,"7 - 12",98.27
31,"Prov. DKI Jakarta",2003,"13 - 15",91.81
31,"Prov. DKI Jakarta",2003,"16 - 18",71.57
31,"Prov. DKI Jakarta",2003,"19 - 24",18.27
31,"Prov. DKI Jakarta",2003,"7 - 12",98.21
31,"Prov. DKI Jakarta",2004,"13 - 15",92.63
31,"Prov. DKI Jakarta",2004,"16 - 18",70.36
31,"Prov. DKI Jakarta",2004,"19 - 24",20.34
31,"Prov. DKI Jakarta",2004,"7 - 12",98.4
31,"Prov. DKI Jakarta",2005,"13 - 15",92
31,"Prov. DKI Jakarta",2005,"16 - 18",65.81
31,"Prov. DKI Jakarta",2005,"19 - 24",18.92
31,"Prov. DKI Jakarta",2005,"7 - 12",98.67
31,"Prov. DKI Jakarta",2006,"13 - 15",90.16
31,"Prov. DKI Jakarta",2006,"16 - 18",60.26
31,"Prov. DKI Jakarta",2006,"19 - 24",15.84
31,"Prov. DKI Jakarta",2006,"7 - 12",98.46
31,"Prov. DKI Jakarta",2007,"13 - 15",90.53
31,"Prov. DKI Jakarta",2007,"16 - 18",61.49
31,"Prov. DKI Jakarta",2007,"19 - 24",17.18
31,"Prov. DKI Jakarta",2007,"7 - 12",98.73
31,"Prov. DKI Jakarta",2008,"13 - 15",90.53
31,"Prov. DKI Jakarta",2008,"16 - 18",61.86
31,"Prov. DKI Jakarta",2008,"19 - 24",17.75
31,"Prov. DKI Jakarta",2008,"7 - 12",98.82
31,"Prov. DKI Jakarta",2009,"13 - 15",90.75
31,"Prov. DKI Jakarta",2009,"16 - 18",61.53
31,"Prov. DKI Jakarta",2009,"19 - 24",17.23
31,"Prov. DKI Jakarta",2009,"7 - 12",99.06
31,"Prov. DKI Jakarta",2010,"13 - 15",91.45
31,"Prov. DKI Jakarta",2010,"16 - 18",61.99
31,"Prov. DKI Jakarta",2010,"19 - 24",17.91
31,"Prov. DKI Jakarta",2010,"7 - 12",99.16
31,"Prov. DKI Jakarta",2011,"13 - 15",92.01
31,"Prov. DKI Jakarta",2011,"16 - 18",58.56
31,"Prov. DKI Jakarta",2011,"19 - 24",17.13
31,"Prov. DKI Jakarta",2011,"7 - 12",98.09
31,"Prov. DKI Jakarta",2012,"13 - 15",93.79
31,"Prov. DKI Jakarta",2012,"16 - 18",60.81
31,"Prov. DKI Jakarta",2012,"19 - 24",17.79
31,"Prov. DKI Jakarta",2012,"7 - 12",98.97
32,"Prov. Jawa Barat",2003,"13 - 15",75.86
32,"Prov. Jawa Barat",2003,"16 - 18",43.53
32,"Prov. Jawa Barat",2003,"19 - 24",9.19
32,"Prov. Jawa Barat",2003,"7 - 12",96.27
32,"Prov. Jawa Barat",2004,"13 - 15",78.16
32,"Prov. Jawa Barat",2004,"16 - 18",45.08
32,"Prov. Jawa Barat",2004,"19 - 24",9.29
32,"Prov. Jawa Barat",2004,"7 - 12",96.5
32,"Prov. Jawa Barat",2005,"13 - 15",76.44
32,"Prov. Jawa Barat",2005,"16 - 18",45.51
32,"Prov. Jawa Barat",2005,"19 - 24",9.61
32,"Prov. Jawa Barat",2005,"7 - 12",96.28
32,"Prov. Jawa Barat",2006,"13 - 15",79.7
32,"Prov. Jawa Barat",2006,"16 - 18",45.62
32,"Prov. Jawa Barat",2006,"19 - 24",8.88
32,"Prov. Jawa Barat",2006,"7 - 12",97.64
32,"Prov. Jawa Barat",2007,"13 - 15",80.36
32,"Prov. Jawa Barat",2007,"16 - 18",47.57
32,"Prov. Jawa Barat",2007,"19 - 24",10.2
32,"Prov. Jawa Barat",2007,"7 - 12",97.84
32,"Prov. Jawa Barat",2008,"13 - 15",81
32,"Prov. Jawa Barat",2008,"16 - 18",47.58
32,"Prov. Jawa Barat",2008,"19 - 24",10.54
32,"Prov. Jawa Barat",2008,"7 - 12",98.24
32,"Prov. Jawa Barat",2009,"13 - 15",81.85
32,"Prov. Jawa Barat",2009,"16 - 18",47.06
32,"Prov. Jawa Barat",2009,"19 - 24",10.01
32,"Prov. Jawa Barat",2009,"7 - 12",98.22
32,"Prov. Jawa Barat",2010,"13 - 15",82.73
32,"Prov. Jawa Barat",2010,"16 - 18",47.82
32,"Prov. Jawa Barat",2010,"19 - 24",10.38
32,"Prov. Jawa Barat",2010,"7 - 12",98.29
32,"Prov. Jawa Barat",2011,"13 - 15",85.69
32,"Prov. Jawa Barat",2011,"16 - 18",50.37
32,"Prov. Jawa Barat",2011,"19 - 24",10.71
32,"Prov. Jawa Barat",2011,"7 - 12",97.85
32,"Prov. Jawa Barat",2012,"13 - 15",88.51
32,"Prov. Jawa Barat",2012,"16 - 18",55.69
32,"Prov. Jawa Barat",2012,"19 - 24",12.09
32,"Prov. Jawa Barat",2012,"7 - 12",98.34
33,"Prov. Jawa Tengah",2003,"13 - 15",82.36
33,"Prov. Jawa Tengah",2003,"16 - 18",48.13
33,"Prov. Jawa Tengah",2003,"19 - 24",10.06
33,"Prov. Jawa Tengah",2003,"7 - 12",97.9
33,"Prov. Jawa Tengah",2004,"13 - 15",84.3
33,"Prov. Jawa Tengah",2004,"16 - 18",51.02
33,"Prov. Jawa Tengah",2004,"19 - 24",10.45
33,"Prov. Jawa Tengah",2004,"7 - 12",98.04
33,"Prov. Jawa Tengah",2005,"13 - 15",87.79
33,"Prov. Jawa Tengah",2005,"16 - 18",52.97
33,"Prov. Jawa Tengah",2005,"19 - 24",10.84
33,"Prov. Jawa Tengah",2005,"7 - 12",98.34
33,"Prov. Jawa Tengah",2006,"13 - 15",83.41
33,"Prov. Jawa Tengah",2006,"16 - 18",51.31
33,"Prov. Jawa Tengah",2006,"19 - 24",9.26
33,"Prov. Jawa Tengah",2006,"7 - 12",98.47
33,"Prov. Jawa Tengah",2007,"13 - 15",84.03
33,"Prov. Jawa Tengah",2007,"16 - 18",53.2
33,"Prov. Jawa Tengah",2007,"19 - 24",10.28
33,"Prov. Jawa Tengah",2007,"7 - 12",98.67
33,"Prov. Jawa Tengah",2008,"13 - 15",84.27
33,"Prov. Jawa Tengah",2008,"16 - 18",53.36
33,"Prov. Jawa Tengah",2008,"19 - 24",10.55
33,"Prov. Jawa Tengah",2008,"7 - 12",98.83
33,"Prov. Jawa Tengah",2009,"13 - 15",84.59
33,"Prov. Jawa Tengah",2009,"16 - 18",52.84
33,"Prov. Jawa Tengah",2009,"19 - 24",10.2
33,"Prov. Jawa Tengah",2009,"7 - 12",98.8
33,"Prov. Jawa Tengah",2010,"13 - 15",85.33
33,"Prov. Jawa Tengah",2010,"16 - 18",53.72
33,"Prov. Jawa Tengah",2010,"19 - 24",11.34
33,"Prov. Jawa Tengah",2010,"7 - 12",98.95
33,"Prov. Jawa Tengah",2011,"13 - 15",88.39
33,"Prov. Jawa Tengah",2011,"16 - 18",55
33,"Prov. Jawa Tengah",2011,"19 - 24",11.17
33,"Prov. Jawa Tengah",2011,"7 - 12",98.62
33,"Prov. Jawa Tengah",2012,"13 - 15",89.59
33,"Prov. Jawa Tengah",2012,"16 - 18",58.56
33,"Prov. Jawa Tengah",2012,"19 - 24",11.78
33,"Prov. Jawa Tengah",2012,"7 - 12",98.87
34,"Prov. D I Yogyakarta",2003,"13 - 15",95.1
34,"Prov. D I Yogyakarta",2003,"16 - 18",73.58
34,"Prov. D I Yogyakarta",2003,"19 - 24",42.29
34,"Prov. D I Yogyakarta",2003,"7 - 12",98.67
34,"Prov. D I Yogyakarta",2004,"13 - 15",95.02
34,"Prov. D I Yogyakarta",2004,"16 - 18",75.96
34,"Prov. D I Yogyakarta",2004,"19 - 24",47
34,"Prov. D I Yogyakarta",2004,"7 - 12",98.77
34,"Prov. D I Yogyakarta",2005,"13 - 15",95.16
34,"Prov. D I Yogyakarta",2005,"16 - 18",74.86
34,"Prov. D I Yogyakarta",2005,"19 - 24",41.21
34,"Prov. D I Yogyakarta",2005,"7 - 12",99.05
34,"Prov. D I Yogyakarta",2006,"13 - 15",90.55
34,"Prov. D I Yogyakarta",2006,"16 - 18",71.18
34,"Prov. D I Yogyakarta",2006,"19 - 24",39.71
34,"Prov. D I Yogyakarta",2006,"7 - 12",99.35
34,"Prov. D I Yogyakarta",2007,"13 - 15",92.62
34,"Prov. D I Yogyakarta",2007,"16 - 18",71.82
34,"Prov. D I Yogyakarta",2007,"19 - 24",43.38
34,"Prov. D I Yogyakarta",2007,"7 - 12",99.29
34,"Prov. D I Yogyakarta",2008,"13 - 15",92.91
34,"Prov. D I Yogyakarta",2008,"16 - 18",72.46
34,"Prov. D I Yogyakarta",2008,"19 - 24",43.47
34,"Prov. D I Yogyakarta",2008,"7 - 12",99.62
34,"Prov. D I Yogyakarta",2009,"13 - 15",93.42
34,"Prov. D I Yogyakarta",2009,"16 - 18",72.26
34,"Prov. D I Yogyakarta",2009,"19 - 24",43.3
34,"Prov. D I Yogyakarta",2009,"7 - 12",99.65
34,"Prov. D I Yogyakarta",2010,"13 - 15",94.02
34,"Prov. D I Yogyakarta",2010,"16 - 18",73.06
34,"Prov. D I Yogyakarta",2010,"19 - 24",44.03
34,"Prov. D I Yogyakarta",2010,"7 - 12",99.69
34,"Prov. D I Yogyakarta",2011,"13 - 15",97.59
34,"Prov. D I Yogyakarta",2011,"16 - 18",75.85
34,"Prov. D I Yogyakarta",2011,"19 - 24",41.73
34,"Prov. D I Yogyakarta",2011,"7 - 12",99.46
34,"Prov. D I Yogyakarta",2012,"13 - 15",98.32
34,"Prov. D I Yogyakarta",2012,"16 - 18",80.22
34,"Prov. D I Yogyakarta",2012,"19 - 24",44.32
34,"Prov. D I Yogyakarta",2012,"7 - 12",99.77
35,"Prov. Jawa Timur",2003,"13 - 15",81.99
35,"Prov. Jawa Timur",2003,"16 - 18",51.71
35,"Prov. Jawa Timur",2003,"19 - 24",11.13
35,"Prov. Jawa Timur",2003,"7 - 12",97.18
35,"Prov. Jawa Timur",2004,"13 - 15",84.63
35,"Prov. Jawa Timur",2004,"16 - 18",52.8
35,"Prov. Jawa Timur",2004,"19 - 24",11.59
35,"Prov. Jawa Timur",2004,"7 - 12",97.43
35,"Prov. Jawa Timur",2005,"13 - 15",87.56
35,"Prov. Jawa Timur",2005,"16 - 18",55.63
35,"Prov. Jawa Timur",2005,"19 - 24",11.44
35,"Prov. Jawa Timur",2005,"7 - 12",97.96
35,"Prov. Jawa Timur",2006,"13 - 15",85.99
35,"Prov. Jawa Timur",2006,"16 - 18",56.79
35,"Prov. Jawa Timur",2006,"19 - 24",10.28
35,"Prov. Jawa Timur",2006,"7 - 12",98.22
35,"Prov. Jawa Timur",2007,"13 - 15",86.4
35,"Prov. Jawa Timur",2007,"16 - 18",58.26
35,"Prov. Jawa Timur",2007,"19 - 24",11.5
35,"Prov. Jawa Timur",2007,"7 - 12",98.39
35,"Prov. Jawa Timur",2008,"13 - 15",86.54
35,"Prov. Jawa Timur",2008,"16 - 18",58.14
35,"Prov. Jawa Timur",2008,"19 - 24",11.63
35,"Prov. Jawa Timur",2008,"7 - 12",98.63
35,"Prov. Jawa Timur",2009,"13 - 15",88
35,"Prov. Jawa Timur",2009,"16 - 18",58.44
35,"Prov. Jawa Timur",2009,"19 - 24",11.51
35,"Prov. Jawa Timur",2009,"7 - 12",98.57
35,"Prov. Jawa Timur",2010,"13 - 15",88.82
35,"Prov. Jawa Timur",2010,"16 - 18",59.39
35,"Prov. Jawa Timur",2010,"19 - 24",12.43
35,"Prov. Jawa Timur",2010,"7 - 12",98.74
35,"Prov. Jawa Timur",2011,"13 - 15",90.04
35,"Prov. Jawa Timur",2011,"16 - 18",58.79
35,"Prov. Jawa Timur",2011,"19 - 24",12.73
35,"Prov. Jawa Timur",2011,"7 - 12",98.26
35,"Prov. Jawa Timur",2012,"13 - 15",91.7
35,"Prov. Jawa Timur",2012,"16 - 18",61.68
35,"Prov. Jawa Timur",2012,"19 - 24",14.35
35,"Prov. Jawa Timur",2012,"7 - 12",98.66
36,"Prov. Banten",2003,"13 - 15",79.11
36,"Prov. Banten",2003,"16 - 18",45.68
36,"Prov. Banten",2003,"19 - 24",10.21
36,"Prov. Banten",2003,"7 - 12",96.8
36,"Prov. Banten",2004,"13 - 15",81.89
36,"Prov. Banten",2004,"16 - 18",51.39
36,"Prov. Banten",2004,"19 - 24",11.05
36,"Prov. Banten",2004,"7 - 12",96.88
36,"Prov. Banten",2005,"13 - 15",78.98
36,"Prov. Banten",2005,"16 - 18",51.87
36,"Prov. Banten",2005,"19 - 24",10.98
36,"Prov. Banten",2005,"7 - 12",97.09
36,"Prov. Banten",2006,"13 - 15",80.35
36,"Prov. Banten",2006,"16 - 18",48.65
36,"Prov. Banten",2006,"19 - 24",10.36
36,"Prov. Banten",2006,"7 - 12",97.36
36,"Prov. Banten",2007,"13 - 15",81.08
36,"Prov. Banten",2007,"16 - 18",51.05
36,"Prov. Banten",2007,"19 - 24",11.34
36,"Prov. Banten",2007,"7 - 12",97.55
36,"Prov. Banten",2008,"13 - 15",81.28
36,"Prov. Banten",2008,"16 - 18",50.35
36,"Prov. Banten",2008,"19 - 24",11.66
36,"Prov. Banten",2008,"7 - 12",97.75
36,"Prov. Banten",2009,"13 - 15",80.86
36,"Prov. Banten",2009,"16 - 18",49.96
36,"Prov. Banten",2009,"19 - 24",11.07
36,"Prov. Banten",2009,"7 - 12",97.85
36,"Prov. Banten",2010,"13 - 15",81.7
36,"Prov. Banten",2010,"16 - 18",50.9
36,"Prov. Banten",2010,"19 - 24",11.7
36,"Prov. Banten",2010,"7 - 12",98.01
36,"Prov. Banten",2011,"13 - 15",88.36
36,"Prov. Banten",2011,"16 - 18",56.16
36,"Prov. Banten",2011,"19 - 24",12.53
36,"Prov. Banten",2011,"7 - 12",98.23
36,"Prov. Banten",2012,"13 - 15",90.97
36,"Prov. Banten",2012,"16 - 18",58.58
36,"Prov. Banten",2012,"19 - 24",15.55
36,"Prov. Banten",2012,"7 - 12",98.29
51,"Prov. Bali",2003,"13 - 15",86.06
51,"Prov. Bali",2003,"16 - 18",62.02
51,"Prov. Bali",2003,"19 - 24",13.61
51,"Prov. Bali",2003,"7 - 12",97.29
51,"Prov. Bali",2004,"13 - 15",86.36
51,"Prov. Bali",2004,"16 - 18",63.31
51,"Prov. Bali",2004,"19 - 24",10.75
51,"Prov. Bali",2004,"7 - 12",98.11
51,"Prov. Bali",2005,"13 - 15",83.9
51,"Prov. Bali",2005,"16 - 18",61.27
51,"Prov. Bali",2005,"19 - 24",14.82
51,"Prov. Bali",2005,"7 - 12",97.41
51,"Prov. Bali",2006,"13 - 15",87.16
51,"Prov. Bali",2006,"16 - 18",63.21
51,"Prov. Bali",2006,"19 - 24",10.98
51,"Prov. Bali",2006,"7 - 12",98.27
51,"Prov. Bali",2007,"13 - 15",87.59
51,"Prov. Bali",2007,"16 - 18",63.38
51,"Prov. Bali",2007,"19 - 24",13.1
51,"Prov. Bali",2007,"7 - 12",98.36
51,"Prov. Bali",2008,"13 - 15",88.07
51,"Prov. Bali",2008,"16 - 18",63.36
51,"Prov. Bali",2008,"19 - 24",13.53
51,"Prov. Bali",2008,"7 - 12",98.45
51,"Prov. Bali",2009,"13 - 15",88.43
51,"Prov. Bali",2009,"16 - 18",64.59
51,"Prov. Bali",2009,"19 - 24",13.84
51,"Prov. Bali",2009,"7 - 12",98.52
51,"Prov. Bali",2010,"13 - 15",89.26
51,"Prov. Bali",2010,"16 - 18",65.22
51,"Prov. Bali",2010,"19 - 24",15.31
51,"Prov. Bali",2010,"7 - 12",98.69
51,"Prov. Bali",2011,"13 - 15",92.22
51,"Prov. Bali",2011,"16 - 18",68.91
51,"Prov. Bali",2011,"19 - 24",17.83
51,"Prov. Bali",2011,"7 - 12",98.45
51,"Prov. Bali",2012,"13 - 15",95.15
51,"Prov. Bali",2012,"16 - 18",70.8
51,"Prov. Bali",2012,"19 - 24",18.62
51,"Prov. Bali",2012,"7 - 12",99.2
52,"Prov. Nusa Tenggara Barat",2003,"13 - 15",72.27
52,"Prov. Nusa Tenggara Barat",2003,"16 - 18",42.97
52,"Prov. Nusa Tenggara Barat",2003,"19 - 24",6.48
52,"Prov. Nusa Tenggara Barat",2003,"7 - 12",94.72
52,"Prov. Nusa Tenggara Barat",2004,"13 - 15",76.47
52,"Prov. Nusa Tenggara Barat",2004,"16 - 18",47.26
52,"Prov. Nusa Tenggara Barat",2004,"19 - 24",10.05
52,"Prov. Nusa Tenggara Barat",2004,"7 - 12",94.67
52,"Prov. Nusa Tenggara Barat",2005,"13 - 15",81.62
52,"Prov. Nusa Tenggara Barat",2005,"16 - 18",51.22
52,"Prov. Nusa Tenggara Barat",2005,"19 - 24",11.39
52,"Prov. Nusa Tenggara Barat",2005,"7 - 12",96.02
52,"Prov. Nusa Tenggara Barat",2006,"13 - 15",84.84
52,"Prov. Nusa Tenggara Barat",2006,"16 - 18",55.62
52,"Prov. Nusa Tenggara Barat",2006,"19 - 24",12.92
52,"Prov. Nusa Tenggara Barat",2006,"7 - 12",96.75
52,"Prov. Nusa Tenggara Barat",2007,"13 - 15",85.24
52,"Prov. Nusa Tenggara Barat",2007,"16 - 18",57.3
52,"Prov. Nusa Tenggara Barat",2007,"19 - 24",14.84
52,"Prov. Nusa Tenggara Barat",2007,"7 - 12",97.07
52,"Prov. Nusa Tenggara Barat",2008,"13 - 15",85.57
52,"Prov. Nusa Tenggara Barat",2008,"16 - 18",57.22
52,"Prov. Nusa Tenggara Barat",2008,"19 - 24",14.6
52,"Prov. Nusa Tenggara Barat",2008,"7 - 12",97.25
52,"Prov. Nusa Tenggara Barat",2009,"13 - 15",85.81
52,"Prov. Nusa Tenggara Barat",2009,"16 - 18",56.92
52,"Prov. Nusa Tenggara Barat",2009,"19 - 24",14.41
52,"Prov. Nusa Tenggara Barat",2009,"7 - 12",98.12
52,"Prov. Nusa Tenggara Barat",2010,"13 - 15",86.52
52,"Prov. Nusa Tenggara Barat",2010,"16 - 18",57.71
52,"Prov. Nusa Tenggara Barat",2010,"19 - 24",15.39
52,"Prov. Nusa Tenggara Barat",2010,"7 - 12",98.26
52,"Prov. Nusa Tenggara Barat",2011,"13 - 15",91.52
52,"Prov. Nusa Tenggara Barat",2011,"16 - 18",60.45
52,"Prov. Nusa Tenggara Barat",2011,"19 - 24",16.84
52,"Prov. Nusa Tenggara Barat",2011,"7 - 12",97.76
52,"Prov. Nusa Tenggara Barat",2012,"13 - 15",91.55
52,"Prov. Nusa Tenggara Barat",2012,"16 - 18",60.75
52,"Prov. Nusa Tenggara Barat",2012,"19 - 24",17.59
52,"Prov. Nusa Tenggara Barat",2012,"7 - 12",98.19
53,"Prov. Nusa Tenggara Timur",2003,"13 - 15",71.65
53,"Prov. Nusa Tenggara Timur",2003,"16 - 18",37.79
53,"Prov. Nusa Tenggara Timur",2003,"19 - 24",9.29
53,"Prov. Nusa Tenggara Timur",2003,"7 - 12",90.77
53,"Prov. Nusa Tenggara Timur",2004,"13 - 15",77.49
53,"Prov. Nusa Tenggara Timur",2004,"16 - 18",45.35
53,"Prov. Nusa Tenggara Timur",2004,"19 - 24",9.98
53,"Prov. Nusa Tenggara Timur",2004,"7 - 12",93.23
53,"Prov. Nusa Tenggara Timur",2005,"13 - 15",75.74
53,"Prov. Nusa Tenggara Timur",2005,"16 - 18",43.69
53,"Prov. Nusa Tenggara Timur",2005,"19 - 24",10.69
53,"Prov. Nusa Tenggara Timur",2005,"7 - 12",94.3
53,"Prov. Nusa Tenggara Timur",2006,"13 - 15",77.24
53,"Prov. Nusa Tenggara Timur",2006,"16 - 18",46.51
53,"Prov. Nusa Tenggara Timur",2006,"19 - 24",11.62
53,"Prov. Nusa Tenggara Timur",2006,"7 - 12",94
53,"Prov. Nusa Tenggara Timur",2007,"13 - 15",78.11
53,"Prov. Nusa Tenggara Timur",2007,"16 - 18",49.58
53,"Prov. Nusa Tenggara Timur",2007,"19 - 24",14.42
53,"Prov. Nusa Tenggara Timur",2007,"7 - 12",93.73
53,"Prov. Nusa Tenggara Timur",2008,"13 - 15",77.76
53,"Prov. Nusa Tenggara Timur",2008,"16 - 18",49.67
53,"Prov. Nusa Tenggara Timur",2008,"19 - 24",14.38
53,"Prov. Nusa Tenggara Timur",2008,"7 - 12",93.72
53,"Prov. Nusa Tenggara Timur",2009,"13 - 15",79.28
53,"Prov. Nusa Tenggara Timur",2009,"16 - 18",47.95
53,"Prov. Nusa Tenggara Timur",2009,"19 - 24",12.56
53,"Prov. Nusa Tenggara Timur",2009,"7 - 12",95.99
53,"Prov. Nusa Tenggara Timur",2010,"13 - 15",81.24
53,"Prov. Nusa Tenggara Timur",2010,"16 - 18",49.22
53,"Prov. Nusa Tenggara Timur",2010,"19 - 24",14.44
53,"Prov. Nusa Tenggara Timur",2010,"7 - 12",96.49
53,"Prov. Nusa Tenggara Timur",2011,"13 - 15",85.88
53,"Prov. Nusa Tenggara Timur",2011,"16 - 18",60.21
53,"Prov. Nusa Tenggara Timur",2011,"19 - 24",15.37
53,"Prov. Nusa Tenggara Timur",2011,"7 - 12",95.96
53,"Prov. Nusa Tenggara Timur",2012,"13 - 15",88.68
53,"Prov. Nusa Tenggara Timur",2012,"16 - 18",62.15
53,"Prov. Nusa Tenggara Timur",2012,"19 - 24",18.36
53,"Prov. Nusa Tenggara Timur",2012,"7 - 12",96.12
61,"Prov. Kalimantan Barat",2003,"13 - 15",81.17
61,"Prov. Kalimantan Barat",2003,"16 - 18",44.95
61,"Prov. Kalimantan Barat",2003,"19 - 24",9.83
61,"Prov. Kalimantan Barat",2003,"7 - 12",92.05
61,"Prov. Kalimantan Barat",2004,"13 - 15",82.91
61,"Prov. Kalimantan Barat",2004,"16 - 18",45.69
61,"Prov. Kalimantan Barat",2004,"19 - 24",8.96
61,"Prov. Kalimantan Barat",2004,"7 - 12",95.42
61,"Prov. Kalimantan Barat",2005,"13 - 15",80.42
61,"Prov. Kalimantan Barat",2005,"16 - 18",47.55
61,"Prov. Kalimantan Barat",2005,"19 - 24",8.68
61,"Prov. Kalimantan Barat",2005,"7 - 12",95.5
61,"Prov. Kalimantan Barat",2006,"13 - 15",83.46
61,"Prov. Kalimantan Barat",2006,"16 - 18",48.55
61,"Prov. Kalimantan Barat",2006,"19 - 24",9.3
61,"Prov. Kalimantan Barat",2006,"7 - 12",96.53
61,"Prov. Kalimantan Barat",2007,"13 - 15",84.08
61,"Prov. Kalimantan Barat",2007,"16 - 18",50.17
61,"Prov. Kalimantan Barat",2007,"19 - 24",11.03
61,"Prov. Kalimantan Barat",2007,"7 - 12",96.71
61,"Prov. Kalimantan Barat",2008,"13 - 15",84.5
61,"Prov. Kalimantan Barat",2008,"16 - 18",50.73
61,"Prov. Kalimantan Barat",2008,"19 - 24",10.62
61,"Prov. Kalimantan Barat",2008,"7 - 12",97.08
61,"Prov. Kalimantan Barat",2009,"13 - 15",83.92
61,"Prov. Kalimantan Barat",2009,"16 - 18",49.83
61,"Prov. Kalimantan Barat",2009,"19 - 24",10.17
61,"Prov. Kalimantan Barat",2009,"7 - 12",96.94
61,"Prov. Kalimantan Barat",2010,"13 - 15",84.48
61,"Prov. Kalimantan Barat",2010,"16 - 18",50.35
61,"Prov. Kalimantan Barat",2010,"19 - 24",11.43
61,"Prov. Kalimantan Barat",2010,"7 - 12",97.04
61,"Prov. Kalimantan Barat",2011,"13 - 15",83.67
61,"Prov. Kalimantan Barat",2011,"16 - 18",49.89
61,"Prov. Kalimantan Barat",2011,"19 - 24",12.11
61,"Prov. Kalimantan Barat",2011,"7 - 12",96.19
61,"Prov. Kalimantan Barat",2012,"13 - 15",85.22
61,"Prov. Kalimantan Barat",2012,"16 - 18",54.65
61,"Prov. Kalimantan Barat",2012,"19 - 24",14.18
61,"Prov. Kalimantan Barat",2012,"7 - 12",96.63
62,"Prov. Kalimantan Tengah",2003,"13 - 15",85.24
62,"Prov. Kalimantan Tengah",2003,"16 - 18",50.29
62,"Prov. Kalimantan Tengah",2003,"19 - 24",9.46
62,"Prov. Kalimantan Tengah",2003,"7 - 12",97.74
62,"Prov. Kalimantan Tengah",2004,"13 - 15",88.41
62,"Prov. Kalimantan Tengah",2004,"16 - 18",50.35
62,"Prov. Kalimantan Tengah",2004,"19 - 24",8.12
62,"Prov. Kalimantan Tengah",2004,"7 - 12",98.42
62,"Prov. Kalimantan Tengah",2005,"13 - 15",91.14
62,"Prov. Kalimantan Tengah",2005,"16 - 18",52.66
62,"Prov. Kalimantan Tengah",2005,"19 - 24",9.67
62,"Prov. Kalimantan Tengah",2005,"7 - 12",98.48
62,"Prov. Kalimantan Tengah",2006,"13 - 15",86.08
62,"Prov. Kalimantan Tengah",2006,"16 - 18",53.39
62,"Prov. Kalimantan Tengah",2006,"19 - 24",9.32
62,"Prov. Kalimantan Tengah",2006,"7 - 12",98.33
62,"Prov. Kalimantan Tengah",2007,"13 - 15",86.47
62,"Prov. Kalimantan Tengah",2007,"16 - 18",54.14
62,"Prov. Kalimantan Tengah",2007,"19 - 24",10.49
62,"Prov. Kalimantan Tengah",2007,"7 - 12",98.31
62,"Prov. Kalimantan Tengah",2008,"13 - 15",86.42
62,"Prov. Kalimantan Tengah",2008,"16 - 18",53.64
62,"Prov. Kalimantan Tengah",2008,"19 - 24",11.15
62,"Prov. Kalimantan Tengah",2008,"7 - 12",98.45
62,"Prov. Kalimantan Tengah",2009,"13 - 15",86.64
62,"Prov. Kalimantan Tengah",2009,"16 - 18",53.65
62,"Prov. Kalimantan Tengah",2009,"19 - 24",10.16
62,"Prov. Kalimantan Tengah",2009,"7 - 12",98.5
62,"Prov. Kalimantan Tengah",2010,"13 - 15",86.83
62,"Prov. Kalimantan Tengah",2010,"16 - 18",54.5
62,"Prov. Kalimantan Tengah",2010,"19 - 24",11.06
62,"Prov. Kalimantan Tengah",2010,"7 - 12",98.7
62,"Prov. Kalimantan Tengah",2011,"13 - 15",85.64
62,"Prov. Kalimantan Tengah",2011,"16 - 18",54.33
62,"Prov. Kalimantan Tengah",2011,"19 - 24",12.59
62,"Prov. Kalimantan Tengah",2011,"7 - 12",98.1
62,"Prov. Kalimantan Tengah",2012,"13 - 15",85.55
62,"Prov. Kalimantan Tengah",2012,"16 - 18",54.06
62,"Prov. Kalimantan Tengah",2012,"19 - 24",13.65
62,"Prov. Kalimantan Tengah",2012,"7 - 12",98.5
63,"Prov. Kalimantan Selatan",2003,"13 - 15",73.47
63,"Prov. Kalimantan Selatan",2003,"16 - 18",41.44
63,"Prov. Kalimantan Selatan",2003,"19 - 24",9.57
63,"Prov. Kalimantan Selatan",2003,"7 - 12",96.34
63,"Prov. Kalimantan Selatan",2004,"13 - 15",78.56
63,"Prov. Kalimantan Selatan",2004,"16 - 18",47.52
63,"Prov. Kalimantan Selatan",2004,"19 - 24",8.16
63,"Prov. Kalimantan Selatan",2004,"7 - 12",96.68
63,"Prov. Kalimantan Selatan",2005,"13 - 15",75.79
63,"Prov. Kalimantan Selatan",2005,"16 - 18",46.24
63,"Prov. Kalimantan Selatan",2005,"19 - 24",10.32
63,"Prov. Kalimantan Selatan",2005,"7 - 12",97.86
63,"Prov. Kalimantan Selatan",2006,"13 - 15",78.41
63,"Prov. Kalimantan Selatan",2006,"16 - 18",48.75
63,"Prov. Kalimantan Selatan",2006,"19 - 24",9.5
63,"Prov. Kalimantan Selatan",2006,"7 - 12",96.36
63,"Prov. Kalimantan Selatan",2007,"13 - 15",78.99
63,"Prov. Kalimantan Selatan",2007,"16 - 18",50.01
63,"Prov. Kalimantan Selatan",2007,"19 - 24",11.21
63,"Prov. Kalimantan Selatan",2007,"7 - 12",97.21
63,"Prov. Kalimantan Selatan",2008,"13 - 15",79.68
63,"Prov. Kalimantan Selatan",2008,"16 - 18",50.3
63,"Prov. Kalimantan Selatan",2008,"19 - 24",11.4
63,"Prov. Kalimantan Selatan",2008,"7 - 12",97.48
63,"Prov. Kalimantan Selatan",2009,"13 - 15",79.83
63,"Prov. Kalimantan Selatan",2009,"16 - 18",49.43
63,"Prov. Kalimantan Selatan",2009,"19 - 24",11.2
63,"Prov. Kalimantan Selatan",2009,"7 - 12",97.59
63,"Prov. Kalimantan Selatan",2010,"13 - 15",80.59
63,"Prov. Kalimantan Selatan",2010,"16 - 18",50.23
63,"Prov. Kalimantan Selatan",2010,"19 - 24",12.18
63,"Prov. Kalimantan Selatan",2010,"7 - 12",97.9
63,"Prov. Kalimantan Selatan",2011,"13 - 15",82.89
63,"Prov. Kalimantan Selatan",2011,"16 - 18",54.08
63,"Prov. Kalimantan Selatan",2011,"19 - 24",13.81
63,"Prov. Kalimantan Selatan",2011,"7 - 12",97.62
63,"Prov. Kalimantan Selatan",2012,"13 - 15",85.35
63,"Prov. Kalimantan Selatan",2012,"16 - 18",57.55
63,"Prov. Kalimantan Selatan",2012,"19 - 24",16.68
63,"Prov. Kalimantan Selatan",2012,"7 - 12",97.9
64,"Prov. Kalimantan Timur",2003,"13 - 15",88.6
64,"Prov. Kalimantan Timur",2003,"16 - 18",61.3
64,"Prov. Kalimantan Timur",2003,"19 - 24",11.69
64,"Prov. Kalimantan Timur",2003,"7 - 12",96.65
64,"Prov. Kalimantan Timur",2004,"13 - 15",90.7
64,"Prov. Kalimantan Timur",2004,"16 - 18",64.97
64,"Prov. Kalimantan Timur",2004,"19 - 24",12.56
64,"Prov. Kalimantan Timur",2004,"7 - 12",97.66
64,"Prov. Kalimantan Timur",2005,"13 - 15",89.11
64,"Prov. Kalimantan Timur",2005,"16 - 18",61.75
64,"Prov. Kalimantan Timur",2005,"19 - 24",11.97
64,"Prov. Kalimantan Timur",2005,"7 - 12",97.82
64,"Prov. Kalimantan Timur",2006,"13 - 15",89.91
64,"Prov. Kalimantan Timur",2006,"16 - 18",64.03
64,"Prov. Kalimantan Timur",2006,"19 - 24",13.1
64,"Prov. Kalimantan Timur",2006,"7 - 12",97.51
64,"Prov. Kalimantan Timur",2007,"13 - 15",90.62
64,"Prov. Kalimantan Timur",2007,"16 - 18",64.58
64,"Prov. Kalimantan Timur",2007,"19 - 24",14.41
64,"Prov. Kalimantan Timur",2007,"7 - 12",98.12
64,"Prov. Kalimantan Timur",2008,"13 - 15",90.78
64,"Prov. Kalimantan Timur",2008,"16 - 18",64.71
64,"Prov. Kalimantan Timur",2008,"19 - 24",14.43
64,"Prov. Kalimantan Timur",2008,"7 - 12",98.35
64,"Prov. Kalimantan Timur",2009,"13 - 15",91.55
64,"Prov. Kalimantan Timur",2009,"16 - 18",64.07
64,"Prov. Kalimantan Timur",2009,"19 - 24",13.97
64,"Prov. Kalimantan Timur",2009,"7 - 12",98.42
64,"Prov. Kalimantan Timur",2010,"13 - 15",92.49
64,"Prov. Kalimantan Timur",2010,"16 - 18",64.76
64,"Prov. Kalimantan Timur",2010,"19 - 24",14.88
64,"Prov. Kalimantan Timur",2010,"7 - 12",98.68
64,"Prov. Kalimantan Timur",2011,"13 - 15",92.78
64,"Prov. Kalimantan Timur",2011,"16 - 18",67.6
64,"Prov. Kalimantan Timur",2011,"19 - 24",16.56
64,"Prov. Kalimantan Timur",2011,"7 - 12",98.68
64,"Prov. Kalimantan Timur",2012,"13 - 15",96.53
64,"Prov. Kalimantan Timur",2012,"16 - 18",71.16
64,"Prov. Kalimantan Timur",2012,"19 - 24",19.22
64,"Prov. Kalimantan Timur",2012,"7 - 12",99.17
71,"Prov. Sulawesi Utara",2003,"13 - 15",83.91
71,"Prov. Sulawesi Utara",2003,"16 - 18",54.32
71,"Prov. Sulawesi Utara",2003,"19 - 24",13.1
71,"Prov. Sulawesi Utara",2003,"7 - 12",97.38
71,"Prov. Sulawesi Utara",2004,"13 - 15",85.41
71,"Prov. Sulawesi Utara",2004,"16 - 18",60.7
71,"Prov. Sulawesi Utara",2004,"19 - 24",14.3
71,"Prov. Sulawesi Utara",2004,"7 - 12",96.68
71,"Prov. Sulawesi Utara",2005,"13 - 15",87.96
71,"Prov. Sulawesi Utara",2005,"16 - 18",57.18
71,"Prov. Sulawesi Utara",2005,"19 - 24",10.5
71,"Prov. Sulawesi Utara",2005,"7 - 12",98.15
71,"Prov. Sulawesi Utara",2006,"13 - 15",88.01
71,"Prov. Sulawesi Utara",2006,"16 - 18",55.84
71,"Prov. Sulawesi Utara",2006,"19 - 24",11.15
71,"Prov. Sulawesi Utara",2006,"7 - 12",97.37
71,"Prov. Sulawesi Utara",2007,"13 - 15",88.14
71,"Prov. Sulawesi Utara",2007,"16 - 18",56.98
71,"Prov. Sulawesi Utara",2007,"19 - 24",12.09
71,"Prov. Sulawesi Utara",2007,"7 - 12",97.55
71,"Prov. Sulawesi Utara",2008,"13 - 15",88.46
71,"Prov. Sulawesi Utara",2008,"16 - 18",56.84
71,"Prov. Sulawesi Utara",2008,"19 - 24",12.8
71,"Prov. Sulawesi Utara",2008,"7 - 12",97.87
71,"Prov. Sulawesi Utara",2009,"13 - 15",88.4
71,"Prov. Sulawesi Utara",2009,"16 - 18",56.56
71,"Prov. Sulawesi Utara",2009,"19 - 24",12.07
71,"Prov. Sulawesi Utara",2009,"7 - 12",97.82
71,"Prov. Sulawesi Utara",2010,"13 - 15",89.06
71,"Prov. Sulawesi Utara",2010,"16 - 18",56.75
71,"Prov. Sulawesi Utara",2010,"19 - 24",13.3
71,"Prov. Sulawesi Utara",2010,"7 - 12",98.3
71,"Prov. Sulawesi Utara",2011,"13 - 15",87.79
71,"Prov. Sulawesi Utara",2011,"16 - 18",61.09
71,"Prov. Sulawesi Utara",2011,"19 - 24",14.25
71,"Prov. Sulawesi Utara",2011,"7 - 12",97.93
71,"Prov. Sulawesi Utara",2012,"13 - 15",88.5
71,"Prov. Sulawesi Utara",2012,"16 - 18",65.43
71,"Prov. Sulawesi Utara",2012,"19 - 24",16.25
71,"Prov. Sulawesi Utara",2012,"7 - 12",98.22
72,"Prov. Sulawesi Tengah",2003,"13 - 15",72.82
72,"Prov. Sulawesi Tengah",2003,"16 - 18",44.23
72,"Prov. Sulawesi Tengah",2003,"19 - 24",8.69
72,"Prov. Sulawesi Tengah",2003,"7 - 12",96.6
72,"Prov. Sulawesi Tengah",2004,"13 - 15",77.65
72,"Prov. Sulawesi Tengah",2004,"16 - 18",46.87
72,"Prov. Sulawesi Tengah",2004,"19 - 24",10.85
72,"Prov. Sulawesi Tengah",2004,"7 - 12",96.04
72,"Prov. Sulawesi Tengah",2005,"13 - 15",79.7
72,"Prov. Sulawesi Tengah",2005,"16 - 18",45.62
72,"Prov. Sulawesi Tengah",2005,"19 - 24",10.34
72,"Prov. Sulawesi Tengah",2005,"7 - 12",96.76
72,"Prov. Sulawesi Tengah",2006,"13 - 15",80.74
72,"Prov. Sulawesi Tengah",2006,"16 - 18",47.9
72,"Prov. Sulawesi Tengah",2006,"19 - 24",12.35
72,"Prov. Sulawesi Tengah",2006,"7 - 12",97.12
72,"Prov. Sulawesi Tengah",2007,"13 - 15",80.96
72,"Prov. Sulawesi Tengah",2007,"16 - 18",50.54
72,"Prov. Sulawesi Tengah",2007,"19 - 24",14.19
72,"Prov. Sulawesi Tengah",2007,"7 - 12",96.82
72,"Prov. Sulawesi Tengah",2008,"13 - 15",81.13
72,"Prov. Sulawesi Tengah",2008,"16 - 18",50.75
72,"Prov. Sulawesi Tengah",2008,"19 - 24",14.75
72,"Prov. Sulawesi Tengah",2008,"7 - 12",97.16
72,"Prov. Sulawesi Tengah",2009,"13 - 15",83.41
72,"Prov. Sulawesi Tengah",2009,"16 - 18",49.3
72,"Prov. Sulawesi Tengah",2009,"19 - 24",13.43
72,"Prov. Sulawesi Tengah",2009,"7 - 12",97.22
72,"Prov. Sulawesi Tengah",2010,"13 - 15",84.17
72,"Prov. Sulawesi Tengah",2010,"16 - 18",50.06
72,"Prov. Sulawesi Tengah",2010,"19 - 24",14.69
72,"Prov. Sulawesi Tengah",2010,"7 - 12",97.52
72,"Prov. Sulawesi Tengah",2011,"13 - 15",84.14
72,"Prov. Sulawesi Tengah",2011,"16 - 18",57.59
72,"Prov. Sulawesi Tengah",2011,"19 - 24",14.4
72,"Prov. Sulawesi Tengah",2011,"7 - 12",96.58
72,"Prov. Sulawesi Tengah",2012,"13 - 15",84.42
72,"Prov. Sulawesi Tengah",2012,"16 - 18",59.6
72,"Prov. Sulawesi Tengah",2012,"19 - 24",16.23
72,"Prov. Sulawesi Tengah",2012,"7 - 12",96.54
73,"Prov. Sulawesi Selatan",2003,"13 - 15",69.48
73,"Prov. Sulawesi Selatan",2003,"16 - 18",45.41
73,"Prov. Sulawesi Selatan",2003,"19 - 24",14.94
73,"Prov. Sulawesi Selatan",2003,"7 - 12",92.41
73,"Prov. Sulawesi Selatan",2004,"13 - 15",73.54
73,"Prov. Sulawesi Selatan",2004,"16 - 18",46.91
73,"Prov. Sulawesi Selatan",2004,"19 - 24",13.8
73,"Prov. Sulawesi Selatan",2004,"7 - 12",93.34
73,"Prov. Sulawesi Selatan",2005,"13 - 15",76.13
73,"Prov. Sulawesi Selatan",2005,"16 - 18",49.34
73,"Prov. Sulawesi Selatan",2005,"19 - 24",14.49
73,"Prov. Sulawesi Selatan",2005,"7 - 12",94.88
73,"Prov. Sulawesi Selatan",2006,"13 - 15",78.4
73,"Prov. Sulawesi Selatan",2006,"16 - 18",50.85
73,"Prov. Sulawesi Selatan",2006,"19 - 24",12.88
73,"Prov. Sulawesi Selatan",2006,"7 - 12",95.08
73,"Prov. Sulawesi Selatan",2007,"13 - 15",79.25
73,"Prov. Sulawesi Selatan",2007,"16 - 18",52.52
73,"Prov. Sulawesi Selatan",2007,"19 - 24",15.99
73,"Prov. Sulawesi Selatan",2007,"7 - 12",95.4
73,"Prov. Sulawesi Selatan",2008,"13 - 15",78.99
73,"Prov. Sulawesi Selatan",2008,"16 - 18",52.29
73,"Prov. Sulawesi Selatan",2008,"19 - 24",16.08
73,"Prov. Sulawesi Selatan",2008,"7 - 12",95.71
73,"Prov. Sulawesi Selatan",2009,"13 - 15",80.96
73,"Prov. Sulawesi Selatan",2009,"16 - 18",51.67
73,"Prov. Sulawesi Selatan",2009,"19 - 24",15.79
73,"Prov. Sulawesi Selatan",2009,"7 - 12",96.53
73,"Prov. Sulawesi Selatan",2010,"13 - 15",82.63
73,"Prov. Sulawesi Selatan",2010,"16 - 18",53
73,"Prov. Sulawesi Selatan",2010,"19 - 24",18.64
73,"Prov. Sulawesi Selatan",2010,"7 - 12",97
73,"Prov. Sulawesi Selatan",2011,"13 - 15",84.04
73,"Prov. Sulawesi Selatan",2011,"16 - 18",56.66
73,"Prov. Sulawesi Selatan",2011,"19 - 24",20.4
73,"Prov. Sulawesi Selatan",2011,"7 - 12",97.16
73,"Prov. Sulawesi Selatan",2012,"13 - 15",87.69
73,"Prov. Sulawesi Selatan",2012,"16 - 18",61.6
73,"Prov. Sulawesi Selatan",2012,"19 - 24",22.76
73,"Prov. Sulawesi Selatan",2012,"7 - 12",97.59
74,"Prov. Sulawesi Tenggara",2003,"13 - 15",79.33
74,"Prov. Sulawesi Tenggara",2003,"16 - 18",47.32
74,"Prov. Sulawesi Tenggara",2003,"19 - 24",10.94
74,"Prov. Sulawesi Tenggara",2003,"7 - 12",95.5
74,"Prov. Sulawesi Tenggara",2004,"13 - 15",80.8
74,"Prov. Sulawesi Tenggara",2004,"16 - 18",53.15
74,"Prov. Sulawesi Tenggara",2004,"19 - 24",11.11
74,"Prov. Sulawesi Tenggara",2004,"7 - 12",94.82
74,"Prov. Sulawesi Tenggara",2005,"13 - 15",86.53
74,"Prov. Sulawesi Tenggara",2005,"16 - 18",56.13
74,"Prov. Sulawesi Tenggara",2005,"19 - 24",15.17
74,"Prov. Sulawesi Tenggara",2005,"7 - 12",96.87
74,"Prov. Sulawesi Tenggara",2006,"13 - 15",85.22
74,"Prov. Sulawesi Tenggara",2006,"16 - 18",58.19
74,"Prov. Sulawesi Tenggara",2006,"19 - 24",14.64
74,"Prov. Sulawesi Tenggara",2006,"7 - 12",97.04
74,"Prov. Sulawesi Tenggara",2007,"13 - 15",85.48
74,"Prov. Sulawesi Tenggara",2007,"16 - 18",58.58
74,"Prov. Sulawesi Tenggara",2007,"19 - 24",16.09
74,"Prov. Sulawesi Tenggara",2007,"7 - 12",97.31
74,"Prov. Sulawesi Tenggara",2008,"13 - 15",85.62
74,"Prov. Sulawesi Tenggara",2008,"16 - 18",59.17
74,"Prov. Sulawesi Tenggara",2008,"19 - 24",16.08
74,"Prov. Sulawesi Tenggara",2008,"7 - 12",97.66
74,"Prov. Sulawesi Tenggara",2009,"13 - 15",87.2
74,"Prov. Sulawesi Tenggara",2009,"16 - 18",59.19
74,"Prov. Sulawesi Tenggara",2009,"19 - 24",16.45
74,"Prov. Sulawesi Tenggara",2009,"7 - 12",97.69
74,"Prov. Sulawesi Tenggara",2010,"13 - 15",88.17
74,"Prov. Sulawesi Tenggara",2010,"16 - 18",59.93
74,"Prov. Sulawesi Tenggara",2010,"19 - 24",18.28
74,"Prov. Sulawesi Tenggara",2010,"7 - 12",97.81
74,"Prov. Sulawesi Tenggara",2011,"13 - 15",86.88
74,"Prov. Sulawesi Tenggara",2011,"16 - 18",62.66
74,"Prov. Sulawesi Tenggara",2011,"19 - 24",19.87
74,"Prov. Sulawesi Tenggara",2011,"7 - 12",97.36
74,"Prov. Sulawesi Tenggara",2012,"13 - 15",87.85
74,"Prov. Sulawesi Tenggara",2012,"16 - 18",65.26
74,"Prov. Sulawesi Tenggara",2012,"19 - 24",23.7
74,"Prov. Sulawesi Tenggara",2012,"7 - 12",97.41
75,"Prov. Gorontalo",2003,"13 - 15",66.86
75,"Prov. Gorontalo",2003,"16 - 18",35.1
75,"Prov. Gorontalo",2003,"19 - 24",8.82
75,"Prov. Gorontalo",2003,"7 - 12",90.58
75,"Prov. Gorontalo",2004,"13 - 15",67
75,"Prov. Gorontalo",2004,"16 - 18",39.2
75,"Prov. Gorontalo",2004,"19 - 24",9.52
75,"Prov. Gorontalo",2004,"7 - 12",91.53
75,"Prov. Gorontalo",2005,"13 - 15",69.34
75,"Prov. Gorontalo",2005,"16 - 18",42.62
75,"Prov. Gorontalo",2005,"19 - 24",8.4
75,"Prov. Gorontalo",2005,"7 - 12",92.95
75,"Prov. Gorontalo",2006,"13 - 15",75.84
75,"Prov. Gorontalo",2006,"16 - 18",47.6
75,"Prov. Gorontalo",2006,"19 - 24",7.96
75,"Prov. Gorontalo",2006,"7 - 12",93.39
75,"Prov. Gorontalo",2007,"13 - 15",77.91
75,"Prov. Gorontalo",2007,"16 - 18",50.3
75,"Prov. Gorontalo",2007,"19 - 24",12.82
75,"Prov. Gorontalo",2007,"7 - 12",93.62
75,"Prov. Gorontalo",2008,"13 - 15",77.68
75,"Prov. Gorontalo",2008,"16 - 18",50.17
75,"Prov. Gorontalo",2008,"19 - 24",13.01
75,"Prov. Gorontalo",2008,"7 - 12",94.23
75,"Prov. Gorontalo",2009,"13 - 15",80.94
75,"Prov. Gorontalo",2009,"16 - 18",48.77
75,"Prov. Gorontalo",2009,"19 - 24",11.1
75,"Prov. Gorontalo",2009,"7 - 12",96.55
75,"Prov. Gorontalo",2010,"13 - 15",81.78
75,"Prov. Gorontalo",2010,"16 - 18",49.61
75,"Prov. Gorontalo",2010,"19 - 24",12.87
75,"Prov. Gorontalo",2010,"7 - 12",96.86
75,"Prov. Gorontalo",2011,"13 - 15",82.95
75,"Prov. Gorontalo",2011,"16 - 18",57.9
75,"Prov. Gorontalo",2011,"19 - 24",19.33
75,"Prov. Gorontalo",2011,"7 - 12",96.87
75,"Prov. Gorontalo",2012,"13 - 15",82.57
75,"Prov. Gorontalo",2012,"16 - 18",57.82
75,"Prov. Gorontalo",2012,"19 - 24",20.07
75,"Prov. Gorontalo",2012,"7 - 12",97.52
76,"Prov. Sulawesi Barat",2003,"13 - 15",
76,"Prov. Sulawesi Barat",2003,"16 - 18",
76,"Prov. Sulawesi Barat",2003,"19 - 24",
76,"Prov. Sulawesi Barat",2003,"7 - 12",
76,"Prov. Sulawesi Barat",2004,"13 - 15",
76,"Prov. Sulawesi Barat",2004,"16 - 18",
76,"Prov. Sulawesi Barat",2004,"19 - 24",
76,"Prov. Sulawesi Barat",2004,"7 - 12",
76,"Prov. Sulawesi Barat",2005,"13 - 15",
76,"Prov. Sulawesi Barat",2005,"16 - 18",
76,"Prov. Sulawesi Barat",2005,"19 - 24",
76,"Prov. Sulawesi Barat",2005,"7 - 12",
76,"Prov. Sulawesi Barat",2006,"13 - 15",74.13
76,"Prov. Sulawesi Barat",2006,"16 - 18",42.8
76,"Prov. Sulawesi Barat",2006,"19 - 24",7.44
76,"Prov. Sulawesi Barat",2006,"7 - 12",94.02
76,"Prov. Sulawesi Barat",2007,"13 - 15",75.89
76,"Prov. Sulawesi Barat",2007,"16 - 18",44.05
76,"Prov. Sulawesi Barat",2007,"19 - 24",10.07
76,"Prov. Sulawesi Barat",2007,"7 - 12",94.13
76,"Prov. Sulawesi Barat",2008,"13 - 15",75.75
76,"Prov. Sulawesi Barat",2008,"16 - 18",45.68
76,"Prov. Sulawesi Barat",2008,"19 - 24",10.2
76,"Prov. Sulawesi Barat",2008,"7 - 12",94.53
76,"Prov. Sulawesi Barat",2009,"13 - 15",77.09
76,"Prov. Sulawesi Barat",2009,"16 - 18",43.58
76,"Prov. Sulawesi Barat",2009,"19 - 24",9.1
76,"Prov. Sulawesi Barat",2009,"7 - 12",95.71
76,"Prov. Sulawesi Barat",2010,"13 - 15",77.92
76,"Prov. Sulawesi Barat",2010,"16 - 18",44.54
76,"Prov. Sulawesi Barat",2010,"19 - 24",10.47
76,"Prov. Sulawesi Barat",2010,"7 - 12",95.93
76,"Prov. Sulawesi Barat",2011,"13 - 15",81.1
76,"Prov. Sulawesi Barat",2011,"16 - 18",55.72
76,"Prov. Sulawesi Barat",2011,"19 - 24",13.23
76,"Prov. Sulawesi Barat",2011,"7 - 12",95.33
76,"Prov. Sulawesi Barat",2012,"13 - 15",81.13
76,"Prov. Sulawesi Barat",2012,"16 - 18",56.37
76,"Prov. Sulawesi Barat",2012,"19 - 24",14.21
76,"Prov. Sulawesi Barat",2012,"7 - 12",95.66
81,"Prov. Maluku",2003,"13 - 15",85.43
81,"Prov. Maluku",2003,"16 - 18",55.68
81,"Prov. Maluku",2003,"19 - 24",12.32
81,"Prov. Maluku",2003,"7 - 12",95.65
81,"Prov. Maluku",2004,"13 - 15",92.25
81,"Prov. Maluku",2004,"16 - 18",66.15
81,"Prov. Maluku",2004,"19 - 24",13.66
81,"Prov. Maluku",2004,"7 - 12",97.17
81,"Prov. Maluku",2005,"13 - 15",91.93
81,"Prov. Maluku",2005,"16 - 18",67.74
81,"Prov. Maluku",2005,"19 - 24",12.63
81,"Prov. Maluku",2005,"7 - 12",98.26
81,"Prov. Maluku",2006,"13 - 15",90.61
81,"Prov. Maluku",2006,"16 - 18",70.39
81,"Prov. Maluku",2006,"19 - 24",15.86
81,"Prov. Maluku",2006,"7 - 12",97.55
81,"Prov. Maluku",2007,"13 - 15",91.1
81,"Prov. Maluku",2007,"16 - 18",72.63
81,"Prov. Maluku",2007,"19 - 24",17.7
81,"Prov. Maluku",2007,"7 - 12",97.24
81,"Prov. Maluku",2008,"13 - 15",91.2
81,"Prov. Maluku",2008,"16 - 18",71.95
81,"Prov. Maluku",2008,"19 - 24",18.13
81,"Prov. Maluku",2008,"7 - 12",97.52
81,"Prov. Maluku",2009,"13 - 15",91.98
81,"Prov. Maluku",2009,"16 - 18",72.28
81,"Prov. Maluku",2009,"19 - 24",19.24
81,"Prov. Maluku",2009,"7 - 12",97.87
81,"Prov. Maluku",2010,"13 - 15",92.85
81,"Prov. Maluku",2010,"16 - 18",72.4
81,"Prov. Maluku",2010,"19 - 24",21.88
81,"Prov. Maluku",2010,"7 - 12",98.27
81,"Prov. Maluku",2011,"13 - 15",91.89
81,"Prov. Maluku",2011,"16 - 18",67.21
81,"Prov. Maluku",2011,"19 - 24",23.65
81,"Prov. Maluku",2011,"7 - 12",98.18
81,"Prov. Maluku",2012,"13 - 15",94.66
81,"Prov. Maluku",2012,"16 - 18",68.4
81,"Prov. Maluku",2012,"19 - 24",29
81,"Prov. Maluku",2012,"7 - 12",98.3
82,"Prov. Maluku Utara",2003,"13 - 15",87.55
82,"Prov. Maluku Utara",2003,"16 - 18",50.93
82,"Prov. Maluku Utara",2003,"19 - 24",8.64
82,"Prov. Maluku Utara",2003,"7 - 12",97.41
82,"Prov. Maluku Utara",2004,"13 - 15",88.33
82,"Prov. Maluku Utara",2004,"16 - 18",52.56
82,"Prov. Maluku Utara",2004,"19 - 24",10.71
82,"Prov. Maluku Utara",2004,"7 - 12",96.79
82,"Prov. Maluku Utara",2005,"13 - 15",86.85
82,"Prov. Maluku Utara",2005,"16 - 18",63.84
82,"Prov. Maluku Utara",2005,"19 - 24",11.27
82,"Prov. Maluku Utara",2005,"7 - 12",97.91
82,"Prov. Maluku Utara",2006,"13 - 15",88.37
82,"Prov. Maluku Utara",2006,"16 - 18",61.85
82,"Prov. Maluku Utara",2006,"19 - 24",14.4
82,"Prov. Maluku Utara",2006,"7 - 12",97.35
82,"Prov. Maluku Utara",2007,"13 - 15",88.94
82,"Prov. Maluku Utara",2007,"16 - 18",63.38
82,"Prov. Maluku Utara",2007,"19 - 24",15.72
82,"Prov. Maluku Utara",2007,"7 - 12",96.71
82,"Prov. Maluku Utara",2008,"13 - 15",89.2
82,"Prov. Maluku Utara",2008,"16 - 18",63.39
82,"Prov. Maluku Utara",2008,"19 - 24",16.6
82,"Prov. Maluku Utara",2008,"7 - 12",96.8
82,"Prov. Maluku Utara",2009,"13 - 15",90.02
82,"Prov. Maluku Utara",2009,"16 - 18",63.38
82,"Prov. Maluku Utara",2009,"19 - 24",15.67
82,"Prov. Maluku Utara",2009,"7 - 12",96.85
82,"Prov. Maluku Utara",2010,"13 - 15",90.76
82,"Prov. Maluku Utara",2010,"16 - 18",64.12
82,"Prov. Maluku Utara",2010,"19 - 24",17.04
82,"Prov. Maluku Utara",2010,"7 - 12",97.23
82,"Prov. Maluku Utara",2011,"13 - 15",89.89
82,"Prov. Maluku Utara",2011,"16 - 18",64.7
82,"Prov. Maluku Utara",2011,"19 - 24",16.8
82,"Prov. Maluku Utara",2011,"7 - 12",97.04
82,"Prov. Maluku Utara",2012,"13 - 15",90.87
82,"Prov. Maluku Utara",2012,"16 - 18",68.26
82,"Prov. Maluku Utara",2012,"19 - 24",21.7
82,"Prov. Maluku Utara",2012,"7 - 12",98.24
91,"Prov. Papua Barat",2003,"13 - 15",
91,"Prov. Papua Barat",2003,"16 - 18",
91,"Prov. Papua Barat",2003,"19 - 24",
91,"Prov. Papua Barat",2003,"7 - 12",
91,"Prov. Papua Barat",2004,"13 - 15",
91,"Prov. Papua Barat",2004,"16 - 18",
91,"Prov. Papua Barat",2004,"19 - 24",
91,"Prov. Papua Barat",2004,"7 - 12",
91,"Prov. Papua Barat",2005,"13 - 15",
91,"Prov. Papua Barat",2005,"16 - 18",
91,"Prov. Papua Barat",2005,"19 - 24",
91,"Prov. Papua Barat",2005,"7 - 12",
91,"Prov. Papua Barat",2006,"13 - 15",88.38
91,"Prov. Papua Barat",2006,"16 - 18",56
91,"Prov. Papua Barat",2006,"19 - 24",11.53
91,"Prov. Papua Barat",2006,"7 - 12",90.94
91,"Prov. Papua Barat",2007,"13 - 15",88.58
91,"Prov. Papua Barat",2007,"16 - 18",57.61
91,"Prov. Papua Barat",2007,"19 - 24",13.13
91,"Prov. Papua Barat",2007,"7 - 12",93.17
91,"Prov. Papua Barat",2008,"13 - 15",88.55
91,"Prov. Papua Barat",2008,"16 - 18",58.15
91,"Prov. Papua Barat",2008,"19 - 24",14.7
91,"Prov. Papua Barat",2008,"7 - 12",93.38
91,"Prov. Papua Barat",2009,"13 - 15",88.59
91,"Prov. Papua Barat",2009,"16 - 18",57.95
91,"Prov. Papua Barat",2009,"19 - 24",12.72
91,"Prov. Papua Barat",2009,"7 - 12",93.35
91,"Prov. Papua Barat",2010,"13 - 15",90.25
91,"Prov. Papua Barat",2010,"16 - 18",60.12
91,"Prov. Papua Barat",2010,"19 - 24",14.66
91,"Prov. Papua Barat",2010,"7 - 12",94.43
91,"Prov. Papua Barat",2011,"13 - 15",88.59
91,"Prov. Papua Barat",2011,"16 - 18",65.4
91,"Prov. Papua Barat",2011,"19 - 24",18.31
91,"Prov. Papua Barat",2011,"7 - 12",94.38
91,"Prov. Papua Barat",2012,"13 - 15",91.65
91,"Prov. Papua Barat",2012,"16 - 18",67.18
91,"Prov. Papua Barat",2012,"19 - 24",19.9
91,"Prov. Papua Barat",2012,"7 - 12",95.56
94,"Prov. Papua",2003,"13 - 15",75.19
94,"Prov. Papua",2003,"16 - 18",49.38
94,"Prov. Papua",2003,"19 - 24",8.16
94,"Prov. Papua",2003,"7 - 12",85.75
94,"Prov. Papua",2004,"13 - 15",78.31
94,"Prov. Papua",2004,"16 - 18",51.47
94,"Prov. Papua",2004,"19 - 24",9.23
94,"Prov. Papua",2004,"7 - 12",86.64
94,"Prov. Papua",2005,"13 - 15",74.93
94,"Prov. Papua",2005,"16 - 18",53.4
94,"Prov. Papua",2005,"19 - 24",9.58
94,"Prov. Papua",2005,"7 - 12",86.32
94,"Prov. Papua",2006,"13 - 15",77.54
94,"Prov. Papua",2006,"16 - 18",53.64
94,"Prov. Papua",2006,"19 - 24",13.5
94,"Prov. Papua",2006,"7 - 12",80.38
94,"Prov. Papua",2007,"13 - 15",78.01
94,"Prov. Papua",2007,"16 - 18",54.72
94,"Prov. Papua",2007,"19 - 24",15.88
94,"Prov. Papua",2007,"7 - 12",83.36
94,"Prov. Papua",2008,"13 - 15",78.22
94,"Prov. Papua",2008,"16 - 18",54.13
94,"Prov. Papua",2008,"19 - 24",15.68
94,"Prov. Papua",2008,"7 - 12",83.38
94,"Prov. Papua",2009,"13 - 15",73.68
94,"Prov. Papua",2009,"16 - 18",47.51
94,"Prov. Papua",2009,"19 - 24",12.45
94,"Prov. Papua",2009,"7 - 12",76.09
94,"Prov. Papua",2010,"13 - 15",74.35
94,"Prov. Papua",2010,"16 - 18",48.28
94,"Prov. Papua",2010,"19 - 24",13.18
94,"Prov. Papua",2010,"7 - 12",76.22
94,"Prov. Papua",2011,"13 - 15",71.29
94,"Prov. Papua",2011,"16 - 18",50.55
94,"Prov. Papua",2011,"19 - 24",13.32
94,"Prov. Papua",2011,"7 - 12",73.36
94,"Prov. Papua",2012,"13 - 15",68.99
94,"Prov. Papua",2012,"16 - 18",50.66
94,"Prov. Papua",2012,"19 - 24",13.8
94,"Prov. Papua",2012,"7 - 12",75.34
